<?xml version="1.0" encoding="UTF-8" standalone="no"?>
<svg
   xmlns:dc="http://purl.org/dc/elements/1.1/"
   xmlns:cc="http://creativecommons.org/ns#"
   xmlns:rdf="http://www.w3.org/1999/02/22-rdf-syntax-ns#"
   xmlns:svg="http://www.w3.org/2000/svg"
   xmlns="http://www.w3.org/2000/svg"
   xmlns:sodipodi="http://sodipodi.sourceforge.net/DTD/sodipodi-0.dtd"
   xmlns:inkscape="http://www.inkscape.org/namespaces/inkscape"
   aria-hidden="true"
   focusable="false"
   data-prefix="fad"
   data-icon="fist-raised"
   role="img"
   viewBox="0 0 838.74225 838.74225"
   class="svg-inline--fa fa-fist-raised fa-w-12 fa-9x"
   version="1.1"
   id="svg8"
   sodipodi:docname="fist-margin.svg"
   inkscape:version="1.0.2 (e86c870879, 2021-01-15)"
   width="838.74225"
   height="838.74225"
   inkscape:export-filename="/home/void/fist.png"
   inkscape:export-xdpi="76.951225"
   inkscape:export-ydpi="76.951225">
  <metadata
     id="metadata14">
    <rdf:RDF>
      <cc:Work
         rdf:about="">
        <dc:format>image/svg+xml</dc:format>
        <dc:type
           rdf:resource="http://purl.org/dc/dcmitype/StillImage" />
        <dc:title></dc:title>
      </cc:Work>
    </rdf:RDF>
  </metadata>
  <defs
     id="defs12" />
  <sodipodi:namedview
     pagecolor="#ffffff"
     bordercolor="#666666"
     borderopacity="1"
     objecttolerance="10"
     gridtolerance="10"
     guidetolerance="10"
     inkscape:pageopacity="0"
     inkscape:pageshadow="2"
     inkscape:window-width="1920"
     inkscape:window-height="1012"
     id="namedview10"
     showgrid="false"
     inkscape:zoom="0.98214868"
     inkscape:cx="318.7462"
     inkscape:cy="417.19093"
     inkscape:window-x="0"
     inkscape:window-y="0"
     inkscape:window-maximized="1"
     inkscape:current-layer="g6"
     inkscape:document-rotation="0"
     lock-margins="true"
     fit-margin-top="100"
     fit-margin-left="100"
     fit-margin-right="100"
     fit-margin-bottom="100"
     inkscape:pagecheckerboard="true" />
  <g
     class="fa-group"
     id="g6"
     transform="translate(259.70844,163.37112)">
    <circle
       style="fill:#22a4dd;fill-opacity:1"
       id="path907"
       cx="159.66269"
       cy="256"
       r="319.37112" />
    <path
       id="path1250"
       style="fill:#ffffff;fill-opacity:0.3"
       d="m 400.55469,94.974609 a 66.211258,66.211258 0 0 0 -51.1836,24.210941 v 117.11523 a 47.56,47.56 0 0 1 0.10157,-0.0371 47.56,47.56 0 0 1 0.54687,-0.19531 47.56,47.56 0 0 1 0.54688,-0.18945 47.56,47.56 0 0 1 0.55078,-0.1836 47.56,47.56 0 0 1 0.55273,-0.17578 47.56,47.56 0 0 1 0.55469,-0.16797 47.56,47.56 0 0 1 0.55664,-0.16211 47.56,47.56 0 0 1 0.55859,-0.15625 47.56,47.56 0 0 1 0.56055,-0.14843 47.56,47.56 0 0 1 0.5625,-0.14258 47.56,47.56 0 0 1 0.56445,-0.13477 47.56,47.56 0 0 1 0.56641,-0.12695 47.56,47.56 0 0 1 0.56641,-0.12109 47.56,47.56 0 0 1 0.56836,-0.11524 47.56,47.56 0 0 1 0.57031,-0.10742 47.56,47.56 0 0 1 0.57031,-0.0996 47.56,47.56 0 0 1 0.57227,-0.0937 47.56,47.56 0 0 1 0.57421,-0.0859 47.56,47.56 0 0 1 0.57422,-0.0801 47.56,47.56 0 0 1 0.57618,-0.0723 47.56,47.56 0 0 1 0.57617,-0.0645 47.56,47.56 0 0 1 0.57617,-0.0586 47.56,47.56 0 0 1 0.57812,-0.0508 47.56,47.56 0 0 1 0.57813,-0.0449 47.56,47.56 0 0 1 0.57812,-0.0371 47.56,47.56 0 0 1 0.58008,-0.0293 47.56,47.56 0 0 1 0.57813,-0.0234 47.56,47.56 0 0 1 0.58008,-0.0156 47.56,47.56 0 0 1 0.58007,-0.01 h 48 V 96.226562 a 66.211258,66.211258 0 0 0 -12.8164,-1.251953 z m 46.55859,19.136721 a 16,16 0 0 0 -0.0605,0.12109 16,16 0 0 0 -0.14648,0.30274 16,16 0 0 0 -0.14063,0.30468 16,16 0 0 0 -0.13476,0.3086 16,16 0 0 0 -0.12695,0.3125 16,16 0 0 0 -0.1211,0.3125 16,16 0 0 0 -0.11523,0.3164 16,16 0 0 0 -0.10742,0.31836 16,16 0 0 0 -0.10157,0.32227 16,16 0 0 0 -0.0937,0.32226 16,16 0 0 0 -0.0879,0.32422 16,16 0 0 0 -0.0801,0.32617 16,16 0 0 0 -0.0742,0.33008 16,16 0 0 0 -0.0664,0.32813 16,16 0 0 0 -0.0586,0.33203 16,16 0 0 0 -0.0527,0.33203 16,16 0 0 0 -0.0469,0.33203 16,16 0 0 0 -0.0391,0.33594 16,16 0 0 0 -0.0312,0.33398 16,16 0 0 0 -0.0254,0.33594 16,16 0 0 0 -0.0176,0.33594 16,16 0 0 0 -0.01,0.33594 16,16 0 0 0 -0.004,0.33593 v 112 h 32 a 94.76,94.76 0 0 1 0.77735,0.0117 94.76,94.76 0 0 1 0.81836,0.0176 94.76,94.76 0 0 1 0.81836,0.0254 94.76,94.76 0 0 1 0.81836,0.0312 94.76,94.76 0 0 1 0.8164,0.041 94.76,94.76 0 0 1 0.81836,0.0449 94.76,94.76 0 0 1 0.81641,0.0547 94.76,94.76 0 0 1 0.8164,0.0605 94.76,94.76 0 0 1 0.81446,0.0684 94.76,94.76 0 0 1 0.8164,0.0742 94.76,94.76 0 0 1 0.81446,0.082 94.76,94.76 0 0 1 0.8125,0.0879 94.76,94.76 0 0 1 0.81445,0.0957 94.76,94.76 0 0 1 0.81055,0.10351 94.76,94.76 0 0 1 0.8125,0.10938 94.76,94.76 0 0 1 0.81054,0.11718 94.76,94.76 0 0 1 0.8086,0.12305 94.76,94.76 0 0 1 0.80859,0.13086 94.76,94.76 0 0 1 0.80664,0.13867 94.76,94.76 0 0 1 0.80469,0.14453 94.76,94.76 0 0 1 0.80469,0.15235 94.76,94.76 0 0 1 0.80273,0.1582 94.76,94.76 0 0 1 0.80273,0.16602 94.76,94.76 0 0 1 0.79883,0.17187 94.76,94.76 0 0 1 0.79883,0.17969 94.76,94.76 0 0 1 0.79688,0.18555 94.76,94.76 0 0 1 0.79687,0.19335 94.76,94.76 0 0 1 0.79297,0.20118 94.76,94.76 0 0 1 0.79297,0.20703 94.76,94.76 0 0 1 0.78906,0.21289 94.76,94.76 0 0 1 0.78906,0.2207 94.76,94.76 0 0 1 0.78516,0.22656 94.76,94.76 0 0 1 0.78516,0.23438 94.76,94.76 0 0 1 0.78125,0.24219 94.76,94.76 0 0 1 0.78125,0.24609 94.76,94.76 0 0 1 0.77734,0.25586 94.76,94.76 0 0 1 0.77539,0.25977 94.76,94.76 0 0 1 0.77539,0.26953 94.76,94.76 0 0 1 0.76953,0.27343 94.76,94.76 0 0 1 0.76953,0.28125 V 142.3418 a 86.326195,86.326195 0 0 0 -21.61328,-2.75 86.326195,86.326195 0 0 0 -23.57617,3.28125 66.211258,66.211258 0 0 0 -17.06836,-28.76172 z m -145.41016,23.25976 a 83.994247,83.994247 0 0 0 -48.33203,15.29883 v 128.70117 a 16,16 0 0 0 0.002,0.24219 16,16 0 0 0 0.008,0.33594 16,16 0 0 0 0.0156,0.33594 16,16 0 0 0 0.0234,0.33593 16,16 0 0 0 0.0293,0.33594 16,16 0 0 0 0.0371,0.33399 16,16 0 0 0 0.0449,0.33203 16,16 0 0 0 0.0508,0.33398 16,16 0 0 0 0.0566,0.33008 16,16 0 0 0 0.0645,0.33008 16,16 0 0 0 0.0723,0.33008 16,16 0 0 0 0.0781,0.32617 16,16 0 0 0 0.0859,0.32617 16,16 0 0 0 0.0918,0.32227 16,16 0 0 0 0.0996,0.32226 16,16 0 0 0 0.10547,0.31836 16,16 0 0 0 0.11328,0.31836 16,16 0 0 0 0.11914,0.31445 16,16 0 0 0 0.125,0.31055 16,16 0 0 0 0.13281,0.31055 16,16 0 0 0 0.13867,0.30664 16,16 0 0 0 0.14454,0.30273 16,16 0 0 0 0.15234,0.30078 16,16 0 0 0 0.1582,0.29688 16,16 0 0 0 0.16407,0.29297 16,16 0 0 0 0.16992,0.29101 16,16 0 0 0 0.17578,0.28516 16,16 0 0 0 0.18164,0.2832 16,16 0 0 0 0.1875,0.2793 16,16 0 0 0 0.19531,0.27539 16,16 0 0 0 0.19922,0.26953 16,16 0 0 0 0.20508,0.26758 16,16 0 0 0 0.21094,0.26172 16,16 0 0 0 0.21679,0.25781 16,16 0 0 0 0.22071,0.25195 16,16 0 0 0 0.22656,0.25 16,16 0 0 0 0.23242,0.24219 16,16 0 0 0 0.23633,0.23828 16,16 0 0 0 0.24219,0.23438 16,16 0 0 0 0.24804,0.22851 16,16 0 0 0 0.25196,0.22266 16,16 0 0 0 0.25585,0.21875 16,16 0 0 0 0.25977,0.21094 16,16 0 0 0 0.26563,0.20703 16,16 0 0 0 0.26953,0.20117 16,16 0 0 0 0.27343,0.19531 16,16 0 0 0 0.2793,0.18945 16,16 0 0 0 0.28125,0.1836 16,16 0 0 0 0.28516,0.17773 16,16 0 0 0 0.28906,0.17188 16,16 0 0 0 0.29297,0.16601 16,16 0 0 0 0.29687,0.16016 16,16 0 0 0 0.29883,0.15234 16,16 0 0 0 0.30274,0.14844 16,16 0 0 0 0.30468,0.14063 16,16 0 0 0 0.3086,0.13281 16,16 0 0 0 0.3125,0.12695 16,16 0 0 0 0.3125,0.1211 16,16 0 0 0 0.3164,0.11523 16,16 0 0 0 0.31836,0.10742 16,16 0 0 0 0.32227,0.10156 16,16 0 0 0 0.32226,0.0937 16,16 0 0 0 0.32422,0.0879 16,16 0 0 0 0.32617,0.0801 16,16 0 0 0 0.32813,0.0742 16,16 0 0 0 0.33008,0.0664 16,16 0 0 0 0.33203,0.0586 16,16 0 0 0 0.33203,0.0527 16,16 0 0 0 0.33203,0.0469 16,16 0 0 0 0.33594,0.0391 16,16 0 0 0 0.33398,0.0312 16,16 0 0 0 0.33594,0.0254 16,16 0 0 0 0.33594,0.0176 16,16 0 0 0 0.33594,0.01 16,16 0 0 0 0.33593,0.004 h 32 a 16,16 0 0 0 0.24219,-0.002 16,16 0 0 0 0.33594,-0.008 16,16 0 0 0 0.33594,-0.0156 16,16 0 0 0 0.33593,-0.0234 16,16 0 0 0 0.33594,-0.0293 16,16 0 0 0 0.33399,-0.0371 16,16 0 0 0 0.33203,-0.0449 16,16 0 0 0 0.33398,-0.0508 16,16 0 0 0 0.33008,-0.0566 16,16 0 0 0 0.33008,-0.0645 16,16 0 0 0 0.33008,-0.0723 16,16 0 0 0 0.32617,-0.0781 16,16 0 0 0 0.32617,-0.0859 16,16 0 0 0 0.32227,-0.0918 16,16 0 0 0 0.32226,-0.0996 16,16 0 0 0 0.31836,-0.10547 16,16 0 0 0 0.31836,-0.11328 16,16 0 0 0 0.31445,-0.11914 16,16 0 0 0 0.31055,-0.125 16,16 0 0 0 0.31055,-0.13282 16,16 0 0 0 0.30664,-0.13867 16,16 0 0 0 0.30273,-0.14453 16,16 0 0 0 0.30078,-0.15234 16,16 0 0 0 0.29688,-0.1582 16,16 0 0 0 0.29297,-0.16407 16,16 0 0 0 0.29101,-0.16992 16,16 0 0 0 0.28516,-0.17578 16,16 0 0 0 0.2832,-0.18164 16,16 0 0 0 0.2793,-0.1875 16,16 0 0 0 0.27539,-0.19531 16,16 0 0 0 0.26953,-0.19922 16,16 0 0 0 0.26758,-0.20508 16,16 0 0 0 0.26172,-0.21094 16,16 0 0 0 0.25781,-0.2168 16,16 0 0 0 0.25195,-0.2207 16,16 0 0 0 0.25,-0.22656 16,16 0 0 0 0.24219,-0.23242 16,16 0 0 0 0.23828,-0.23633 16,16 0 0 0 0.23438,-0.24219 16,16 0 0 0 0.22851,-0.24804 16,16 0 0 0 0.22266,-0.25196 16,16 0 0 0 0.21875,-0.25586 16,16 0 0 0 0.21094,-0.25976 16,16 0 0 0 0.20703,-0.26563 16,16 0 0 0 0.20117,-0.26953 16,16 0 0 0 0.19531,-0.27344 16,16 0 0 0 0.18945,-0.27929 16,16 0 0 0 0.1836,-0.28125 16,16 0 0 0 0.17773,-0.28516 16,16 0 0 0 0.17188,-0.28906 16,16 0 0 0 0.16601,-0.29297 16,16 0 0 0 0.16016,-0.29688 16,16 0 0 0 0.15234,-0.29882 16,16 0 0 0 0.14844,-0.30274 16,16 0 0 0 0.14063,-0.30469 16,16 0 0 0 0.13281,-0.30859 16,16 0 0 0 0.12695,-0.3125 16,16 0 0 0 0.1211,-0.3125 16,16 0 0 0 0.11523,-0.31641 16,16 0 0 0 0.10742,-0.31836 16,16 0 0 0 0.10156,-0.32226 16,16 0 0 0 0.0937,-0.32227 16,16 0 0 0 0.0879,-0.32422 16,16 0 0 0 0.0801,-0.32617 16,16 0 0 0 0.0742,-0.33008 16,16 0 0 0 0.0664,-0.32812 16,16 0 0 0 0.0586,-0.33203 16,16 0 0 0 0.0527,-0.33203 16,16 0 0 0 0.0469,-0.33203 16,16 0 0 0 0.0391,-0.33594 16,16 0 0 0 0.0312,-0.33399 16,16 0 0 0 0.0254,-0.33593 16,16 0 0 0 0.0176,-0.33594 16,16 0 0 0 0.01,-0.33594 16,16 0 0 0 0.004,-0.33594 V 138.8457 a 83.994247,83.994247 0 0 0 -15.66797,-1.47461 z m -133.89453,43.66407 a 83.15036,83.15036 0 0 0 -10.4375,0.6582 v 99.67773 a 16,16 0 0 0 0.002,0.24219 16,16 0 0 0 0.008,0.33594 16,16 0 0 0 0.0156,0.33594 16,16 0 0 0 0.0234,0.33593 16,16 0 0 0 0.0293,0.33594 16,16 0 0 0 0.0371,0.33399 16,16 0 0 0 0.0449,0.33203 16,16 0 0 0 0.0508,0.33398 16,16 0 0 0 0.0566,0.33008 16,16 0 0 0 0.0645,0.33008 16,16 0 0 0 0.0723,0.33008 16,16 0 0 0 0.0781,0.32617 16,16 0 0 0 0.0859,0.32617 16,16 0 0 0 0.0918,0.32227 16,16 0 0 0 0.0996,0.32226 16,16 0 0 0 0.10547,0.31836 16,16 0 0 0 0.11328,0.31836 16,16 0 0 0 0.11914,0.31445 16,16 0 0 0 0.125,0.31055 16,16 0 0 0 0.13281,0.31055 16,16 0 0 0 0.13867,0.30664 16,16 0 0 0 0.14454,0.30273 16,16 0 0 0 0.15234,0.30078 16,16 0 0 0 0.1582,0.29688 16,16 0 0 0 0.16407,0.29297 16,16 0 0 0 0.16992,0.29101 16,16 0 0 0 0.17578,0.28516 16,16 0 0 0 0.18164,0.2832 16,16 0 0 0 0.1875,0.2793 16,16 0 0 0 0.19531,0.27539 16,16 0 0 0 0.19922,0.26953 16,16 0 0 0 0.20508,0.26758 16,16 0 0 0 0.21094,0.26172 16,16 0 0 0 0.21679,0.25781 16,16 0 0 0 0.22071,0.25195 16,16 0 0 0 0.22656,0.25 16,16 0 0 0 0.23242,0.24219 16,16 0 0 0 0.23633,0.23828 16,16 0 0 0 0.24219,0.23438 16,16 0 0 0 0.24804,0.22851 16,16 0 0 0 0.25196,0.22266 16,16 0 0 0 0.25585,0.21875 16,16 0 0 0 0.25977,0.21094 16,16 0 0 0 0.26563,0.20703 16,16 0 0 0 0.26953,0.20117 16,16 0 0 0 0.27343,0.19531 16,16 0 0 0 0.2793,0.18945 16,16 0 0 0 0.28125,0.1836 16,16 0 0 0 0.28516,0.17773 16,16 0 0 0 0.28906,0.17188 16,16 0 0 0 0.29297,0.16601 16,16 0 0 0 0.29687,0.16016 16,16 0 0 0 0.29883,0.15234 16,16 0 0 0 0.30274,0.14844 16,16 0 0 0 0.30468,0.14063 16,16 0 0 0 0.3086,0.13281 16,16 0 0 0 0.3125,0.12695 16,16 0 0 0 0.3125,0.1211 16,16 0 0 0 0.3164,0.11523 16,16 0 0 0 0.31836,0.10742 16,16 0 0 0 0.32227,0.10156 16,16 0 0 0 0.32226,0.0937 16,16 0 0 0 0.32422,0.0879 16,16 0 0 0 0.32617,0.0801 16,16 0 0 0 0.32813,0.0742 16,16 0 0 0 0.33008,0.0664 16,16 0 0 0 0.33203,0.0586 16,16 0 0 0 0.33203,0.0527 16,16 0 0 0 0.33203,0.0469 16,16 0 0 0 0.33594,0.0391 16,16 0 0 0 0.33398,0.0312 16,16 0 0 0 0.33594,0.0254 16,16 0 0 0 0.33594,0.0176 16,16 0 0 0 0.33594,0.01 16,16 0 0 0 0.33593,0.004 h 32 a 16,16 0 0 0 0.24219,-0.002 16,16 0 0 0 0.33594,-0.008 16,16 0 0 0 0.33594,-0.0156 16,16 0 0 0 0.33593,-0.0234 16,16 0 0 0 0.33594,-0.0293 16,16 0 0 0 0.33399,-0.0371 16,16 0 0 0 0.33203,-0.0449 16,16 0 0 0 0.33398,-0.0508 16,16 0 0 0 0.33008,-0.0566 16,16 0 0 0 0.33008,-0.0645 16,16 0 0 0 0.33008,-0.0723 16,16 0 0 0 0.32617,-0.0781 16,16 0 0 0 0.32617,-0.0859 16,16 0 0 0 0.32227,-0.0918 16,16 0 0 0 0.32226,-0.0996 16,16 0 0 0 0.31836,-0.10547 16,16 0 0 0 0.31836,-0.11328 16,16 0 0 0 0.31445,-0.11914 16,16 0 0 0 0.31055,-0.125 16,16 0 0 0 0.31055,-0.13282 16,16 0 0 0 0.30664,-0.13867 16,16 0 0 0 0.30273,-0.14453 16,16 0 0 0 0.30078,-0.15234 16,16 0 0 0 0.29688,-0.1582 16,16 0 0 0 0.29297,-0.16407 16,16 0 0 0 0.29101,-0.16992 16,16 0 0 0 0.28516,-0.17578 16,16 0 0 0 0.2832,-0.18164 16,16 0 0 0 0.2793,-0.1875 16,16 0 0 0 0.27539,-0.19531 16,16 0 0 0 0.26953,-0.19922 16,16 0 0 0 0.26758,-0.20508 16,16 0 0 0 0.26172,-0.21094 16,16 0 0 0 0.25781,-0.2168 16,16 0 0 0 0.25195,-0.2207 16,16 0 0 0 0.25,-0.22656 16,16 0 0 0 0.24219,-0.23242 16,16 0 0 0 0.23828,-0.23633 16,16 0 0 0 0.23438,-0.24219 16,16 0 0 0 0.22851,-0.24804 16,16 0 0 0 0.22266,-0.25196 16,16 0 0 0 0.21875,-0.25586 16,16 0 0 0 0.21094,-0.25976 16,16 0 0 0 0.20703,-0.26563 16,16 0 0 0 0.20117,-0.26953 16,16 0 0 0 0.19531,-0.27344 16,16 0 0 0 0.18945,-0.27929 16,16 0 0 0 0.1836,-0.28125 16,16 0 0 0 0.17773,-0.28516 16,16 0 0 0 0.17188,-0.28906 16,16 0 0 0 0.16601,-0.29297 16,16 0 0 0 0.16016,-0.29688 16,16 0 0 0 0.15234,-0.29882 16,16 0 0 0 0.14844,-0.30274 16,16 0 0 0 0.14063,-0.30469 16,16 0 0 0 0.13281,-0.30859 16,16 0 0 0 0.12695,-0.3125 16,16 0 0 0 0.1211,-0.3125 16,16 0 0 0 0.11523,-0.31641 16,16 0 0 0 0.10742,-0.31836 16,16 0 0 0 0.10156,-0.32226 16,16 0 0 0 0.0937,-0.32227 16,16 0 0 0 0.0879,-0.32422 16,16 0 0 0 0.0801,-0.32617 16,16 0 0 0 0.0742,-0.33008 16,16 0 0 0 0.0664,-0.32812 16,16 0 0 0 0.0586,-0.33203 16,16 0 0 0 0.0527,-0.33203 16,16 0 0 0 0.0469,-0.33203 16,16 0 0 0 0.0391,-0.33594 16,16 0 0 0 0.0312,-0.33399 16,16 0 0 0 0.0254,-0.33593 16,16 0 0 0 0.0176,-0.33594 16,16 0 0 0 0.01,-0.33594 16,16 0 0 0 0.004,-0.33594 v -84.53906 a 83.994247,83.994247 0 0 0 -0.86523,3.03516 83.15036,83.15036 0 0 0 -52.69727,-18.83203 z m 197.30079,84.33593 a 15.86,15.86 0 0 0 -0.33399,0.006 15.86,15.86 0 0 0 -0.33594,0.0137 15.86,15.86 0 0 0 -0.33398,0.0195 15.86,15.86 0 0 0 -0.33399,0.0273 15.86,15.86 0 0 0 -0.33203,0.0352 15.86,15.86 0 0 0 -0.33203,0.041 15.86,15.86 0 0 0 -0.33203,0.0488 15.86,15.86 0 0 0 -0.33008,0.0547 15.86,15.86 0 0 0 -0.33008,0.0625 15.86,15.86 0 0 0 -0.32617,0.0684 15.86,15.86 0 0 0 -0.32617,0.0762 15.86,15.86 0 0 0 -0.32422,0.084 15.86,15.86 0 0 0 -0.32422,0.0898 15.86,15.86 0 0 0 -0.32031,0.0957 15.86,15.86 0 0 0 -0.31836,0.10352 15.86,15.86 0 0 0 -0.3164,0.11132 15.86,15.86 0 0 0 -0.3125,0.11524 15.86,15.86 0 0 0 -0.3125,0.125 15.86,15.86 0 0 0 -0.3086,0.1289 15.86,15.86 0 0 0 -0.30664,0.13672 15.86,15.86 0 0 0 -0.30273,0.14258 15.86,15.86 0 0 0 -0.29883,0.14844 15.86,15.86 0 0 0 -0.29688,0.15625 15.86,15.86 0 0 0 -0.29297,0.16211 15.86,15.86 0 0 0 -0.29101,0.16797 15.86,15.86 0 0 0 -0.28516,0.17382 15.86,15.86 0 0 0 -0.2832,0.17969 15.86,15.86 0 0 0 -0.27734,0.18555 15.86,15.86 0 0 0 -0.2754,0.19141 15.86,15.86 0 0 0 -0.26953,0.19726 15.86,15.86 0 0 0 -0.26757,0.20313 15.86,15.86 0 0 0 -0.26172,0.20898 15.86,15.86 0 0 0 -0.25782,0.21484 15.86,15.86 0 0 0 -0.25195,0.21875 15.86,15.86 0 0 0 -0.24805,0.22461 15.86,15.86 0 0 0 -0.24414,0.23047 15.86,15.86 0 0 0 -0.23828,0.23438 15.86,15.86 0 0 0 -0.23242,0.24023 15.86,15.86 0 0 0 -0.22852,0.2461 15.86,15.86 0 0 0 -0.22265,0.25 15.86,15.86 0 0 0 -0.21875,0.2539 15.86,15.86 0 0 0 -0.21289,0.25781 15.86,15.86 0 0 0 -0.20703,0.26368 15.86,15.86 0 0 0 -0.20118,0.26757 15.86,15.86 0 0 0 -0.19531,0.27344 15.86,15.86 0 0 0 -0.18945,0.27539 15.86,15.86 0 0 0 -0.18359,0.2793 15.86,15.86 0 0 0 -0.17774,0.2832 15.86,15.86 0 0 0 -0.17187,0.28711 15.86,15.86 0 0 0 -0.16602,0.29102 15.86,15.86 0 0 0 -0.16016,0.29492 15.86,15.86 0 0 0 -0.15234,0.29883 15.86,15.86 0 0 0 -0.14844,0.30078 15.86,15.86 0 0 0 -0.14062,0.30273 15.86,15.86 0 0 0 -0.13281,0.30664 15.86,15.86 0 0 0 -0.12891,0.31055 15.86,15.86 0 0 0 -0.12109,0.3125 15.86,15.86 0 0 0 -0.11329,0.31445 15.86,15.86 0 0 0 -0.10937,0.31641 15.86,15.86 0 0 0 -0.0996,0.32031 15.86,15.86 0 0 0 -0.0957,0.32032 15.86,15.86 0 0 0 -0.0859,0.32421 15.86,15.86 0 0 0 -0.082,0.32422 15.86,15.86 0 0 0 -0.0742,0.32617 15.86,15.86 0 0 0 -0.0664,0.32813 15.86,15.86 0 0 0 -0.0605,0.33008 15.86,15.86 0 0 0 -0.0527,0.33008 15.86,15.86 0 0 0 -0.0449,0.33203 15.86,15.86 0 0 0 -0.0391,0.33203 15.86,15.86 0 0 0 -0.0332,0.33398 15.86,15.86 0 0 0 -0.0234,0.33399 15.86,15.86 0 0 0 -0.0195,0.33398 15.86,15.86 0 0 0 -0.01,0.33594 15.86,15.86 0 0 0 -0.004,0.33398 v 0.56055 a 47.59,47.59 0 0 0 0.002,0.43164 47.59,47.59 0 0 0 0.01,0.58008 47.59,47.59 0 0 0 0.0156,0.58008 47.59,47.59 0 0 0 0.0215,0.57812 47.59,47.59 0 0 0 0.0312,0.58008 47.59,47.59 0 0 0 0.0371,0.57813 47.59,47.59 0 0 0 0.043,0.58007 47.59,47.59 0 0 0 0.0508,0.57617 47.59,47.59 0 0 0 0.0586,0.57813 47.59,47.59 0 0 0 0.0664,0.57617 47.59,47.59 0 0 0 0.0723,0.57617 47.59,47.59 0 0 0 0.0781,0.57422 47.59,47.59 0 0 0 0.0859,0.57422 47.59,47.59 0 0 0 0.0937,0.57227 47.59,47.59 0 0 0 0.0996,0.57031 47.59,47.59 0 0 0 0.10742,0.57031 47.59,47.59 0 0 0 0.11524,0.56836 47.59,47.59 0 0 0 0.12109,0.56836 47.59,47.59 0 0 0 0.12695,0.56641 47.59,47.59 0 0 0 0.13477,0.56445 47.59,47.59 0 0 0 0.14258,0.5625 47.59,47.59 0 0 0 0.14843,0.56055 47.59,47.59 0 0 0 0.1543,0.55859 47.59,47.59 0 0 0 0.16211,0.55664 47.59,47.59 0 0 0 0.16992,0.55469 47.59,47.59 0 0 0 0.17578,0.55273 47.59,47.59 0 0 0 0.18164,0.55078 47.59,47.59 0 0 0 0.18946,0.54883 47.59,47.59 0 0 0 0.19531,0.54492 47.59,47.59 0 0 0 0.20312,0.54493 47.59,47.59 0 0 0 0.20899,0.54101 47.59,47.59 0 0 0 0.21484,0.53906 47.59,47.59 0 0 0 0.22266,0.53516 47.59,47.59 0 0 0 0.22851,0.5332 47.59,47.59 0 0 0 0.23633,0.5293 47.59,47.59 0 0 0 0.24024,0.52734 47.59,47.59 0 0 0 0.24804,0.52539 47.59,47.59 0 0 0 0.25586,0.52149 47.59,47.59 0 0 0 0.25977,0.51758 47.59,47.59 0 0 0 0.26758,0.51562 47.59,47.59 0 0 0 0.27343,0.51172 47.59,47.59 0 0 0 0.2793,0.50781 47.59,47.59 0 0 0 0.28516,0.50586 47.59,47.59 0 0 0 0.29297,0.5 47.59,47.59 0 0 0 0.29687,0.49805 47.59,47.59 0 0 0 0.30469,0.49414 47.59,47.59 0 0 0 0.30859,0.49023 47.59,47.59 0 0 0 0.31641,0.48633 47.59,47.59 0 0 0 0.32226,0.48243 47.59,47.59 0 0 0 0.32813,0.47851 47.59,47.59 0 0 0 0.33203,0.47461 47.59,47.59 0 0 0 0.33984,0.4707 47.59,47.59 0 0 0 0.34571,0.4668 47.59,47.59 0 0 0 0.34961,0.46289 47.59,47.59 0 0 0 0.35742,0.45703 47.59,47.59 0 0 0 0.36133,0.45313 47.59,47.59 0 0 0 0.36718,0.44922 47.59,47.59 0 0 0 0.37305,0.44531 47.59,47.59 0 0 0 0.37695,0.43945 47.59,47.59 0 0 0 0.38477,0.43555 47.59,47.59 0 0 0 0.38867,0.42969 47.59,47.59 0 0 0 0.39258,0.42578 47.59,47.59 0 0 0 0.40039,0.42187 47.59,47.59 0 0 0 0.4043,0.41602 47.59,47.59 0 0 0 0.4082,0.41211 47.59,47.59 0 0 0 0.41406,0.40625 47.59,47.59 0 0 0 0.41992,0.40039 47.59,47.59 0 0 0 0.42383,0.39648 47.59,47.59 0 0 0 0.42774,0.39063 47.59,47.59 0 0 0 0.43359,0.38476 47.59,47.59 0 0 0 0.43945,0.38086 47.59,47.59 0 0 0 0.44141,0.37305 47.59,47.59 0 0 0 0.44727,0.37109 47.59,47.59 0 0 0 0.45312,0.36328 47.59,47.59 0 0 0 0.45508,0.35743 47.59,47.59 0 0 0 0.46094,0.35351 47.59,47.59 0 0 0 0.46484,0.34766 47.59,47.59 0 0 0 0.46875,0.33984 47.59,47.59 0 0 0 0.47266,0.33594 47.59,47.59 0 0 0 0.47851,0.33008 47.59,47.59 0 0 0 0.48047,0.32422 47.59,47.59 0 0 0 0.48633,0.31836 47.59,47.59 0 0 0 0.48828,0.3125 47.59,47.59 0 0 0 0.49219,0.30664 47.59,47.59 0 0 0 0.49609,0.29882 47.59,47.59 0 0 0 0.5,0.29493 47.59,47.59 0 0 0 0.50391,0.28711 47.59,47.59 0 0 0 0.50781,0.2832 47.59,47.59 0 0 0 0.50977,0.27539 47.59,47.59 0 0 0 0.51367,0.26953 47.59,47.59 0 0 0 0.51758,0.26172 47.59,47.59 0 0 0 0.51953,0.25781 47.59,47.59 0 0 0 0.52343,0.25 47.59,47.59 0 0 0 0.52539,0.24414 47.59,47.59 0 0 0 0.5293,0.23828 47.59,47.59 0 0 0 0.5332,0.23047 47.59,47.59 0 0 0 0.53516,0.22461 47.59,47.59 0 0 0 0.53711,0.21875 47.59,47.59 0 0 0 0.53906,0.21094 47.59,47.59 0 0 0 0.54297,0.20508 47.59,47.59 0 0 0 0.54492,0.19726 47.59,47.59 0 0 0 0.54883,0.19336 47.59,47.59 0 0 0 0.54883,0.1836 47.59,47.59 0 0 0 0.55273,0.17968 47.59,47.59 0 0 0 0.55469,0.16992 47.59,47.59 0 0 0 0.55469,0.16602 47.59,47.59 0 0 0 0.55859,0.1582 47.59,47.59 0 0 0 0.56055,0.15039 47.59,47.59 0 0 0 0.5625,0.14454 47.59,47.59 0 0 0 0.5625,0.13671 47.59,47.59 0 0 0 0.56445,0.13086 47.59,47.59 0 0 0 0.56836,0.12305 47.59,47.59 0 0 0 0.56836,0.11719 47.59,47.59 0 0 0 0.56836,0.10937 47.59,47.59 0 0 0 0.57227,0.10352 47.59,47.59 0 0 0 0.57031,0.0957 47.59,47.59 0 0 0 0.57422,0.0899 47.59,47.59 0 0 0 0.57422,0.0801 47.59,47.59 0 0 0 0.57617,0.0762 47.59,47.59 0 0 0 0.57422,0.0684 47.59,47.59 0 0 0 0.57812,0.0605 47.59,47.59 0 0 0 0.57813,0.0527 47.59,47.59 0 0 0 0.57812,0.0469 47.59,47.59 0 0 0 0.57813,0.041 47.59,47.59 0 0 0 0.57812,0.0312 47.59,47.59 0 0 0 0.58008,0.0254 47.59,47.59 0 0 0 0.58008,0.0195 47.59,47.59 0 0 0 0.58008,0.0117 47.59,47.59 0 0 0 0.58007,0.004 h 35.25 c 2.42001,0 4.45513,0.22422 6.14649,0.62891 1.69136,0.40469 3.03884,0.98914 4.08398,1.71289 1.04515,0.72375 1.78818,1.58578 2.26953,2.54297 0.48136,0.95719 0.70118,2.01023 0.70118,3.11523 v 16.19922 a 8.22,8.22 0 0 1 -0.002,0.0664 8.22,8.22 0 0 1 -0.0117,0.24023 8.22,8.22 0 0 1 -0.0195,0.24219 8.22,8.22 0 0 1 -0.0254,0.23828 8.22,8.22 0 0 1 -0.0332,0.24024 8.22,8.22 0 0 1 -0.0391,0.23632 8.22,8.22 0 0 1 -0.0469,0.23633 8.22,8.22 0 0 1 -0.0547,0.23633 8.22,8.22 0 0 1 -0.0605,0.23242 8.22,8.22 0 0 1 -0.0664,0.23242 8.22,8.22 0 0 1 -0.0742,0.22852 8.22,8.22 0 0 1 -0.0801,0.22656 8.22,8.22 0 0 1 -0.0879,0.22461 8.22,8.22 0 0 1 -0.0937,0.22266 8.22,8.22 0 0 1 -0.10156,0.21875 8.22,8.22 0 0 1 -0.10742,0.2168 8.22,8.22 0 0 1 -0.11328,0.21289 8.22,8.22 0 0 1 -0.11914,0.20898 8.22,8.22 0 0 1 -0.125,0.20703 8.22,8.22 0 0 1 -0.13086,0.20117 8.22,8.22 0 0 1 -0.13672,0.19727 8.22,8.22 0 0 1 -0.14453,0.19531 8.22,8.22 0 0 1 -0.14844,0.18945 8.22,8.22 0 0 1 -0.1543,0.18555 8.22,8.22 0 0 1 -0.16015,0.17969 8.22,8.22 0 0 1 -0.16406,0.17578 8.22,8.22 0 0 1 -0.16993,0.17188 8.22,8.22 0 0 1 -0.17382,0.16601 8.22,8.22 0 0 1 -0.17969,0.16016 8.22,8.22 0 0 1 -0.18555,0.15625 8.22,8.22 0 0 1 -0.1875,0.15039 8.22,8.22 0 0 1 -0.19336,0.14453 8.22,8.22 0 0 1 -0.19726,0.13867 8.22,8.22 0 0 1 -0.20118,0.13281 8.22,8.22 0 0 1 -0.20507,0.12696 8.22,8.22 0 0 1 -0.20899,0.12109 8.22,8.22 0 0 1 -0.21094,0.11328 8.22,8.22 0 0 1 -0.21679,0.10938 8.22,8.22 0 0 1 -0.21875,0.10156 8.22,8.22 0 0 1 -0.22071,0.0957 8.22,8.22 0 0 1 -0.2246,0.0879 8.22,8.22 0 0 1 -0.22657,0.084 8.22,8.22 0 0 1 -0.22851,0.0742 8.22,8.22 0 0 1 -0.23047,0.0703 8.22,8.22 0 0 1 -0.23242,0.0625 8.22,8.22 0 0 1 -0.23438,0.0547 8.22,8.22 0 0 1 -0.23633,0.0488 8.22,8.22 0 0 1 -0.23828,0.041 8.22,8.22 0 0 1 -0.23828,0.0352 8.22,8.22 0 0 1 -0.24023,0.0273 8.22,8.22 0 0 1 -0.24024,0.0195 8.22,8.22 0 0 1 -0.24023,0.0137 c -2.7825,0.1425 -5.46726,0.36284 -8.06446,0.66407 -2.59719,0.30121 -5.10708,0.68399 -7.5371,1.14648 -2.43003,0.46249 -4.78153,1.00647 -7.0625,1.63281 -2.28098,0.62634 -4.49057,1.33421 -6.64063,2.12695 -2.15006,0.79276 -4.24007,1.66913 -6.27734,2.63086 -2.03727,0.96174 -4.02224,2.0093 -5.96485,3.14258 -1.94261,1.13329 -3.8429,2.35276 -5.70898,3.66016 -1.86608,1.3074 -3.69818,2.70146 -5.50586,4.18555 -3.61536,2.96817 -7.13251,6.29405 -10.62305,9.98437 -3.49053,3.69032 -6.9541,7.74668 -10.46484,12.17969 -3.51074,4.433 -7.06816,9.24127 -10.74414,14.4375 -3.67598,5.19623 -7.47078,10.77976 -11.45703,16.75976 l -6.3086,9.47071 A 8,8 0 0 1 335,443.74023 a 8,8 0 0 1 -0.13867,0.19141 8,8 0 0 1 -0.14453,0.18945 8,8 0 0 1 -0.15235,0.1836 8,8 0 0 1 -0.15429,0.17969 8,8 0 0 1 -0.16211,0.17578 8,8 0 0 1 -0.16602,0.16992 8,8 0 0 1 -0.17187,0.16406 8,8 0 0 1 -0.17578,0.16016 8,8 0 0 1 -0.18165,0.15429 8,8 0 0 1 -0.18554,0.14844 8,8 0 0 1 -0.18946,0.14453 8,8 0 0 1 -0.19335,0.13672 8,8 0 0 1 -0.19727,0.13281 8,8 0 0 1 -0.20313,0.125 8,8 0 0 1 -0.20507,0.11914 8,8 0 0 1 -0.20899,0.11524 8,8 0 0 1 -0.21289,0.10742 8,8 0 0 1 -0.21484,0.0996 8,8 0 0 1 -0.2168,0.0957 8,8 0 0 1 -0.22266,0.0879 8,8 0 0 1 -0.22265,0.082 8,8 0 0 1 -0.22656,0.0742 8,8 0 0 1 -0.22657,0.0684 8,8 0 0 1 -0.23047,0.0605 8,8 0 0 1 -0.23046,0.0547 8,8 0 0 1 -0.23438,0.0488 8,8 0 0 1 -0.23437,0.0391 8,8 0 0 1 -0.23438,0.0351 8,8 0 0 1 -0.23633,0.0254 8,8 0 0 1 -0.23828,0.0195 8,8 0 0 1 -0.23633,0.0137 8,8 0 0 1 -0.23828,0.006 8,8 0 0 1 -0.23828,-0.002 8,8 0 0 1 -0.23633,-0.01 8,8 0 0 1 -0.23828,-0.0156 8,8 0 0 1 -0.23633,-0.0234 8,8 0 0 1 -0.23633,-0.0293 8,8 0 0 1 -0.23437,-0.0371 8,8 0 0 1 -0.23437,-0.043 8,8 0 0 1 -0.23243,-0.0508 8,8 0 0 1 -0.23047,-0.0586 8,8 0 0 1 -0.22851,-0.0645 8,8 0 0 1 -0.22656,-0.0703 8,8 0 0 1 -0.22461,-0.0781 8,8 0 0 1 -0.22266,-0.084 8,8 0 0 1 -0.2207,-0.0918 8,8 0 0 1 -0.2168,-0.0976 8,8 0 0 1 -0.21289,-0.10352 8,8 0 0 1 -0.21094,-0.11133 8,8 0 0 1 -0.20703,-0.11523 8,8 0 0 1 -0.20508,-0.12305 8,8 0 0 1 -0.19922,-0.1289 l -13.31054,-8.87891 a 8,8 0 0 1 -0.14844,-0.10156 8,8 0 0 1 -0.19336,-0.13867 8,8 0 0 1 -0.1875,-0.14649 8,8 0 0 1 -0.18359,-0.15039 8,8 0 0 1 -0.17969,-0.15625 8,8 0 0 1 -0.17578,-0.16016 8,8 0 0 1 -0.16992,-0.16601 8,8 0 0 1 -0.16407,-0.17188 8,8 0 0 1 -0.16015,-0.17578 8,8 0 0 1 -0.1543,-0.18164 8,8 0 0 1 -0.14844,-0.18554 8,8 0 0 1 -0.14453,-0.18946 8,8 0 0 1 -0.13672,-0.19336 8,8 0 0 1 -0.13281,-0.19726 8,8 0 0 1 -0.125,-0.20313 8,8 0 0 1 -0.12109,-0.20508 8,8 0 0 1 -0.11328,-0.20898 8,8 0 0 1 -0.10743,-0.21094 8,8 0 0 1 -0.10156,-0.21679 8,8 0 0 1 -0.0937,-0.2168 8,8 0 0 1 -0.0898,-0.2207 8,8 0 0 1 -0.0801,-0.22461 8,8 0 0 1 -0.0762,-0.22461 8,8 0 0 1 -0.0684,-0.22852 8,8 0 0 1 -0.0606,-0.23047 8,8 0 0 1 -0.0547,-0.23047 8,8 0 0 1 -0.0469,-0.23437 8,8 0 0 1 -0.041,-0.23438 8,8 0 0 1 -0.0332,-0.23437 8,8 0 0 1 -0.0273,-0.23633 8,8 0 0 1 -0.0195,-0.23633 8,8 0 0 1 -0.0117,-0.23828 8,8 0 0 1 -0.006,-0.23828 8,8 0 0 1 0.002,-0.23828 8,8 0 0 1 0.008,-0.23633 8,8 0 0 1 0.0156,-0.23828 8,8 0 0 1 0.0234,-0.23633 8,8 0 0 1 0.0293,-0.23633 8,8 0 0 1 0.0371,-0.23437 8,8 0 0 1 0.043,-0.23438 8,8 0 0 1 0.0508,-0.23242 8,8 0 0 1 0.0586,-0.23047 8,8 0 0 1 0.0645,-0.22851 8,8 0 0 1 0.0703,-0.22657 8,8 0 0 1 0.0781,-0.2246 8,8 0 0 1 0.084,-0.22266 8,8 0 0 1 0.0918,-0.2207 8,8 0 0 1 0.0977,-0.2168 8,8 0 0 1 0.10352,-0.21289 8,8 0 0 1 0.11133,-0.21094 8,8 0 0 1 0.11523,-0.20703 8,8 0 0 1 0.12305,-0.20508 8,8 0 0 1 0.1289,-0.19922 l 6.31055,-9.4707 c 3.9325,-5.9 7.78706,-11.55382 11.62305,-16.94727 3.83599,-5.39344 7.6543,-10.526 11.51562,-15.38476 3.86132,-4.85876 7.76495,-9.44429 11.77344,-13.74024 4.00849,-4.29594 8.12094,-8.30281 12.39844,-12.00781 a 64.34,64.34 0 0 1 -0.16992,-0.0547 64.34,64.34 0 0 1 -0.64063,-0.21093 64.34,64.34 0 0 1 -0.63867,-0.2168 64.34,64.34 0 0 1 -0.63672,-0.22461 64.34,64.34 0 0 1 -0.63281,-0.23047 64.34,64.34 0 0 1 -0.63281,-0.23828 64.34,64.34 0 0 1 -0.62891,-0.24414 64.34,64.34 0 0 1 -0.625,-0.25 64.34,64.34 0 0 1 -0.625,-0.25586 64.34,64.34 0 0 1 -0.61914,-0.26367 64.34,64.34 0 0 1 -0.61914,-0.27149 64.34,64.34 0 0 1 -0.61524,-0.27539 64.34,64.34 0 0 1 -0.61132,-0.2832 64.34,64.34 0 0 1 -0.60938,-0.28906 64.34,64.34 0 0 1 -0.60742,-0.29688 64.34,64.34 0 0 1 -0.60156,-0.30273 64.34,64.34 0 0 1 -0.59961,-0.3086 64.34,64.34 0 0 1 -0.59766,-0.31445 64.34,64.34 0 0 1 -0.59375,-0.32031 64.34,64.34 0 0 1 -0.58984,-0.32813 64.34,64.34 0 0 1 -0.58594,-0.33203 64.34,64.34 0 0 1 -0.58203,-0.33984 64.34,64.34 0 0 1 -0.58008,-0.3457 64.34,64.34 0 0 1 -0.57617,-0.35157 64.34,64.34 0 0 1 -0.57031,-0.35742 64.34,64.34 0 0 1 -0.56836,-0.36328 64.34,64.34 0 0 1 -0.56446,-0.36914 64.34,64.34 0 0 1 -0.56054,-0.37695 64.34,64.34 0 0 1 -0.55664,-0.38086 64.34,64.34 0 0 1 -0.55274,-0.38672 64.34,64.34 0 0 1 -0.54687,-0.39258 64.34,64.34 0 0 1 -0.54493,-0.39844 64.34,64.34 0 0 1 -0.54101,-0.40429 64.34,64.34 0 0 1 -0.53516,-0.41016 64.34,64.34 0 0 1 -0.53125,-0.41602 64.34,64.34 0 0 1 -0.52734,-0.41992 64.34,64.34 0 0 1 -0.52149,-0.42773 64.34,64.34 0 0 1 -0.51757,-0.43164 64.34,64.34 0 0 1 -0.51368,-0.4375 64.34,64.34 0 0 1 -0.50976,-0.44336 64.34,64.34 0 0 1 -0.50391,-0.44727 64.34,64.34 0 0 1 -0.5,-0.45312 64.34,64.34 0 0 1 -0.49414,-0.45899 64.34,64.34 0 0 1 -0.49023,-0.46289 64.34,64.34 0 0 1 -0.48438,-0.46875 64.34,64.34 0 0 1 -0.48047,-0.47461 64.34,64.34 0 0 1 -0.47461,-0.47851 64.34,64.34 0 0 1 -0.4707,-0.48438 64.34,64.34 0 0 1 -0.46484,-0.48828 64.34,64.34 0 0 1 -0.45899,-0.49414 64.34,64.34 0 0 1 -0.45508,-0.49805 64.34,64.34 0 0 1 -0.44921,-0.50195 64.34,64.34 0 0 1 -0.44336,-0.50781 64.34,64.34 0 0 1 -0.43946,-0.51367 64.34,64.34 0 0 1 -0.43164,-0.51563 64.34,64.34 0 0 1 -0.42773,-0.52148 64.34,64.34 0 0 1 -0.42383,-0.52735 64.34,64.34 0 0 1 -0.41601,-0.52929 64.34,64.34 0 0 1 -0.41016,-0.53516 64.34,64.34 0 0 1 -0.40625,-0.53906 64.34,64.34 0 0 1 -0.40039,-0.54297 64.34,64.34 0 0 1 -0.39453,-0.54688 64.34,64.34 0 0 1 -0.38867,-0.55273 64.34,64.34 0 0 1 -0.38086,-0.55469 64.34,64.34 0 0 1 -0.37696,-0.56055 64.34,64.34 0 0 1 -0.37109,-0.5625 64.34,64.34 0 0 1 -0.36524,-0.5664 64.34,64.34 0 0 1 -0.35937,-0.57227 64.34,64.34 0 0 1 -0.35352,-0.57422 64.34,64.34 0 0 1 -0.3457,-0.57812 64.34,64.34 0 0 1 -0.3418,-0.58203 64.34,64.34 0 0 1 -0.33398,-0.58594 64.34,64.34 0 0 1 -0.32813,-0.58984 64.34,64.34 0 0 1 -0.32226,-0.5918 64.34,64.34 0 0 1 -0.31641,-0.5957 64.34,64.34 0 0 1 -0.31054,-0.59961 64.34,64.34 0 0 1 -0.30274,-0.60157 64.34,64.34 0 0 1 -0.29687,-0.60546 64.34,64.34 0 0 1 -0.29102,-0.60938 64.34,64.34 0 0 1 -0.28516,-0.61133 47.4,47.4 0 0 1 -0.17187,0.0918 47.4,47.4 0 0 1 -0.51367,0.26562 47.4,47.4 0 0 1 -0.51758,0.25977 47.4,47.4 0 0 1 -0.52149,0.25195 47.4,47.4 0 0 1 -0.52343,0.24805 47.4,47.4 0 0 1 -0.52735,0.24023 47.4,47.4 0 0 1 -0.52929,0.23438 47.4,47.4 0 0 1 -0.53125,0.22656 47.4,47.4 0 0 1 -0.53516,0.2207 47.4,47.4 0 0 1 -0.53906,0.21485 47.4,47.4 0 0 1 -0.53906,0.20898 47.4,47.4 0 0 1 -0.54297,0.20117 47.4,47.4 0 0 1 -0.54493,0.19336 47.4,47.4 0 0 1 -0.54882,0.18946 47.4,47.4 0 0 1 -0.54883,0.17968 47.4,47.4 0 0 1 -0.55274,0.17579 47.4,47.4 0 0 1 -0.55468,0.16797 47.4,47.4 0 0 1 -0.55469,0.16015 47.4,47.4 0 0 1 -0.55859,0.1543 47.4,47.4 0 0 1 -0.56055,0.14648 47.4,47.4 0 0 1 -0.56055,0.14063 47.4,47.4 0 0 1 -0.56445,0.13476 47.4,47.4 0 0 1 -0.56445,0.12696 47.4,47.4 0 0 1 -0.56641,0.11914 47.4,47.4 0 0 1 -0.56836,0.11328 47.4,47.4 0 0 1 -0.56836,0.10547 47.4,47.4 0 0 1 -0.57031,0.0996 47.4,47.4 0 0 1 -0.57227,0.0918 47.4,47.4 0 0 1 -0.57226,0.0859 47.4,47.4 0 0 1 -0.57422,0.0781 47.4,47.4 0 0 1 -0.57422,0.0703 47.4,47.4 0 0 1 -0.57422,0.0644 47.4,47.4 0 0 1 -0.57617,0.0566 47.4,47.4 0 0 1 -0.57813,0.0488 47.4,47.4 0 0 1 -0.57617,0.043 47.4,47.4 0 0 1 -0.57812,0.0371 47.4,47.4 0 0 1 -0.57813,0.0273 47.4,47.4 0 0 1 -0.57812,0.0234 47.4,47.4 0 0 1 -0.58008,0.0137 47.4,47.4 0 0 1 -0.57813,0.008 h -32 a 47.65,47.65 0 0 1 -0.31445,-0.002 47.65,47.65 0 0 1 -0.58008,-0.01 47.65,47.65 0 0 1 -0.58008,-0.0156 47.65,47.65 0 0 1 -0.58007,-0.0234 47.65,47.65 0 0 1 -0.58008,-0.0312 47.65,47.65 0 0 1 -0.58008,-0.0371 47.65,47.65 0 0 1 -0.57813,-0.0449 47.65,47.65 0 0 1 -0.57812,-0.0508 47.65,47.65 0 0 1 -0.57812,-0.0605 47.65,47.65 0 0 1 -0.57618,-0.0645 47.65,47.65 0 0 1 -0.57617,-0.0723 47.65,47.65 0 0 1 -0.57422,-0.0801 47.65,47.65 0 0 1 -0.57422,-0.0879 47.65,47.65 0 0 1 -0.57226,-0.0937 47.65,47.65 0 0 1 -0.57227,-0.0996 47.65,47.65 0 0 1 -0.57031,-0.10743 47.65,47.65 0 0 1 -0.56836,-0.11523 47.65,47.65 0 0 1 -0.56836,-0.12109 47.65,47.65 0 0 1 -0.56641,-0.12891 47.65,47.65 0 0 1 -0.56445,-0.13477 47.65,47.65 0 0 1 -0.5625,-0.14257 47.65,47.65 0 0 1 -0.56055,-0.15039 47.65,47.65 0 0 1 -0.55859,-0.1543 47.65,47.65 0 0 1 -0.55859,-0.16406 47.65,47.65 0 0 1 -0.55469,-0.16797 47.65,47.65 0 0 1 -0.55273,-0.17774 47.65,47.65 0 0 1 -0.55079,-0.18164 47.65,47.65 0 0 1 -0.54882,-0.18945 47.65,47.65 0 0 1 -0.54688,-0.19727 47.65,47.65 0 0 1 -0.54297,-0.20312 47.65,47.65 0 0 1 -0.54101,-0.20899 47.65,47.65 0 0 1 -0.53907,-0.21679 47.65,47.65 0 0 1 -0.5371,-0.22266 47.65,47.65 0 0 1 -0.53321,-0.22851 47.65,47.65 0 0 1 -0.52929,-0.23633 47.65,47.65 0 0 1 -0.52735,-0.24219 47.65,47.65 0 0 1 -0.52539,-0.24805 47.65,47.65 0 0 1 -0.52148,-0.25586 47.65,47.65 0 0 1 -0.51758,-0.25976 47.65,47.65 0 0 1 -0.51563,-0.26758 47.65,47.65 0 0 1 -0.51172,-0.27344 47.65,47.65 0 0 1 -0.50781,-0.28125 47.65,47.65 0 0 1 -0.50586,-0.28515 47.65,47.65 0 0 1 -0.50195,-0.29297 47.65,47.65 0 0 1 -0.49805,-0.29883 47.65,47.65 0 0 1 -0.49414,-0.30469 47.65,47.65 0 0 1 -0.49023,-0.30859 47.65,47.65 0 0 1 -0.48633,-0.31641 47.65,47.65 0 0 1 -0.48242,-0.32226 47.65,47.65 0 0 1 -0.47852,-0.32813 47.65,47.65 0 0 1 -0.47461,-0.33398 47.65,47.65 0 0 1 -0.4707,-0.33985 47.65,47.65 0 0 1 -0.4668,-0.3457 47.65,47.65 0 0 1 -0.46289,-0.35156 47.65,47.65 0 0 1 -0.45703,-0.35742 47.65,47.65 0 0 1 -0.45508,-0.36133 47.65,47.65 0 0 1 -0.44922,-0.36719 47.65,47.65 0 0 1 -0.44336,-0.37305 47.65,47.65 0 0 1 -0.4414,-0.3789 47.65,47.65 0 0 1 -0.4336,-0.38477 47.65,47.65 0 0 1 -0.43164,-0.38867 47.65,47.65 0 0 1 -0.23242,0.21094 47.65,47.65 0 0 1 -0.43359,0.38672 47.65,47.65 0 0 1 -0.4375,0.38086 47.65,47.65 0 0 1 -0.44336,0.375 47.65,47.65 0 0 1 -0.44727,0.37109 47.65,47.65 0 0 1 -0.45117,0.36523 47.65,47.65 0 0 1 -0.45508,0.35938 47.65,47.65 0 0 1 -0.46093,0.35351 47.65,47.65 0 0 1 -0.46485,0.34766 47.65,47.65 0 0 1 -0.46875,0.3418 47.65,47.65 0 0 1 -0.47265,0.33789 47.65,47.65 0 0 1 -0.47657,0.33008 47.65,47.65 0 0 1 -0.48047,0.32421 47.65,47.65 0 0 1 -0.48632,0.32032 47.65,47.65 0 0 1 -0.48828,0.3125 47.65,47.65 0 0 1 -0.49219,0.30664 47.65,47.65 0 0 1 -0.4961,0.30078 47.65,47.65 0 0 1 -0.5,0.29687 47.65,47.65 0 0 1 -0.5039,0.28907 47.65,47.65 0 0 1 -0.50586,0.28125 47.65,47.65 0 0 1 -0.51172,0.27734 47.65,47.65 0 0 1 -0.51367,0.26953 47.65,47.65 0 0 1 -0.51563,0.26563 47.65,47.65 0 0 1 -0.52148,0.25781 47.65,47.65 0 0 1 -0.52149,0.25 47.65,47.65 0 0 1 -0.52734,0.24609 47.65,47.65 0 0 1 -0.5293,0.23828 47.65,47.65 0 0 1 -0.53125,0.23243 47.65,47.65 0 0 1 -0.53515,0.22461 47.65,47.65 0 0 1 -0.53711,0.2207 47.65,47.65 0 0 1 -0.54102,0.21094 47.65,47.65 0 0 1 -0.54297,0.20703 47.65,47.65 0 0 1 -0.54492,0.19922 47.65,47.65 0 0 1 -0.54687,0.19335 47.65,47.65 0 0 1 -0.55079,0.18555 47.65,47.65 0 0 1 -0.55078,0.17969 47.65,47.65 0 0 1 -0.55468,0.17187 47.65,47.65 0 0 1 -0.55664,0.16602 47.65,47.65 0 0 1 -0.5586,0.1582 47.65,47.65 0 0 1 -0.55859,0.15235 47.65,47.65 0 0 1 -0.5625,0.14648 47.65,47.65 0 0 1 -0.56445,0.13867 47.65,47.65 0 0 1 -0.56446,0.13086 47.65,47.65 0 0 1 -0.5664,0.125 47.65,47.65 0 0 1 -0.56836,0.11719 47.65,47.65 0 0 1 -0.57032,0.11133 47.65,47.65 0 0 1 -0.57226,0.10351 47.65,47.65 0 0 1 -0.57227,0.0977 47.65,47.65 0 0 1 -0.57226,0.0898 47.65,47.65 0 0 1 -0.57422,0.082 47.65,47.65 0 0 1 -0.57617,0.0762 47.65,47.65 0 0 1 -0.57618,0.0703 47.65,47.65 0 0 1 -0.57812,0.0606 47.65,47.65 0 0 1 -0.57617,0.0547 47.65,47.65 0 0 1 -0.58008,0.0488 47.65,47.65 0 0 1 -0.57813,0.041 47.65,47.65 0 0 1 -0.58007,0.0332 47.65,47.65 0 0 1 -0.58008,0.0273 47.65,47.65 0 0 1 -0.58008,0.0195 47.65,47.65 0 0 1 -0.58008,0.0117 47.65,47.65 0 0 1 -0.58008,0.006 h -32 a 47.26,47.26 0 0 1 -0.16406,-0.002 47.26,47.26 0 0 1 -0.57812,-0.0117 47.26,47.26 0 0 1 -0.57813,-0.0176 47.26,47.26 0 0 1 -0.57812,-0.0254 47.26,47.26 0 0 1 -0.57618,-0.0312 47.26,47.26 0 0 1 -0.57812,-0.0391 47.26,47.26 0 0 1 -0.57617,-0.0469 47.26,47.26 0 0 1 -0.57422,-0.0527 47.26,47.26 0 0 1 -0.57617,-0.0605 47.26,47.26 0 0 1 -0.57422,-0.0664 47.26,47.26 0 0 1 -0.57227,-0.0742 47.26,47.26 0 0 1 -0.57226,-0.082 47.26,47.26 0 0 1 -0.57227,-0.0879 47.26,47.26 0 0 1 -0.57031,-0.0957 47.26,47.26 0 0 1 -0.56836,-0.10351 47.26,47.26 0 0 1 -0.56836,-0.10742 47.26,47.26 0 0 1 -0.56445,-0.11719 47.26,47.26 0 0 1 -0.56641,-0.12305 47.26,47.26 0 0 1 -0.5625,-0.13086 47.26,47.26 0 0 1 -0.5625,-0.13672 47.26,47.26 0 0 1 -0.55859,-0.14257 47.26,47.26 0 0 1 -0.5586,-0.15039 47.26,47.26 0 0 1 -0.55664,-0.15821 47.26,47.26 0 0 1 -0.55468,-0.16406 47.26,47.26 0 0 1 -0.55079,-0.16992 47.26,47.26 0 0 1 -0.55078,-0.17774 47.26,47.26 0 0 1 -0.54883,-0.18554 47.26,47.26 0 0 1 -0.54492,-0.19141 47.26,47.26 0 0 1 -0.54297,-0.19726 v 77.94921 a 128,128 0 0 0 0,0.29297 128,128 0 0 0 0.006,0.95117 128,128 0 0 0 0.0137,0.95118 128,128 0 0 0 0.0195,0.95117 128,128 0 0 0 0.0273,0.95117 128,128 0 0 0 0.0352,0.94922 128,128 0 0 0 0.041,0.95117 128,128 0 0 0 0.0488,0.95117 128,128 0 0 0 0.0547,0.94922 128,128 0 0 0 0.0625,0.94922 128,128 0 0 0 0.0684,0.94922 128,128 0 0 0 0.0781,0.94726 128,128 0 0 0 0.082,0.94727 128,128 0 0 0 0.0918,0.94727 128,128 0 0 0 0.0977,0.94726 128,128 0 0 0 0.10546,0.94531 128,128 0 0 0 0.11133,0.94532 128,128 0 0 0 0.11914,0.94336 128,128 0 0 0 0.125,0.94336 128,128 0 0 0 0.13282,0.9414 128,128 0 0 0 0.14062,0.94141 128,128 0 0 0 0.14649,0.93945 128,128 0 0 0 0.15234,0.93945 128,128 0 0 0 0.16211,0.9375 128,128 0 0 0 0.16797,0.93555 128,128 0 0 0 0.17383,0.93555 128,128 0 0 0 0.18164,0.93359 128,128 0 0 0 0.18945,0.9336 128,128 0 0 0 0.19531,0.93164 128,128 0 0 0 0.20117,0.92773 128,128 0 0 0 0.20899,0.92969 128,128 0 0 0 0.21679,0.92578 128,128 0 0 0 0.22266,0.92578 128,128 0 0 0 0.23047,0.92188 128,128 0 0 0 0.23633,0.92187 128,128 0 0 0 0.24414,0.91992 128,128 0 0 0 0.25,0.91797 128,128 0 0 0 0.25781,0.91602 128,128 0 0 0 0.26367,0.91406 128,128 0 0 0 0.27149,0.91211 128,128 0 0 0 0.27734,0.9082 128,128 0 0 0 0.2832,0.9082 128,128 0 0 0 0.29297,0.90625 128,128 0 0 0 0.29688,0.9043 128,128 0 0 0 0.30469,0.90039 128,128 0 0 0 0.31054,0.89844 128,128 0 0 0 0.31836,0.89844 128,128 0 0 0 0.32422,0.89257 128,128 0 0 0 0.33203,0.89258 128,128 0 0 0 0.33789,0.88868 128,128 0 0 0 0.34375,0.88671 128,128 0 0 0 0.35156,0.88477 128,128 0 0 0 0.35743,0.88281 128,128 0 0 0 0.36328,0.87891 128,128 0 0 0 0.37109,0.875 128,128 0 0 0 0.37696,0.87304 128,128 0 0 0 0.38476,0.8711 128,128 0 0 0 0.38867,0.86719 128,128 0 0 0 0.39649,0.86523 128,128 0 0 0 0.40429,0.86133 128,128 0 0 0 0.40821,0.85937 128,128 0 0 0 0.41601,0.85547 128,128 0 0 0 0.42188,0.85352 128,128 0 0 0 0.42773,0.84961 128,128 0 0 0 0.43555,0.8457 137.93895,137.93895 0 0 0 103.44336,46.68945 137.93895,137.93895 0 0 0 89.50586,-32.98242 138.03043,138.03043 0 0 0 58.3789,12.95313 138.03043,138.03043 0 0 0 118.14649,-66.66016 96,96 0 0 0 0.0391,-0.71094 96,96 0 0 0 0.0391,-0.82226 96,96 0 0 0 0.0312,-0.82422 96,96 0 0 0 0.0254,-0.82422 96,96 0 0 0 0.0176,-0.82227 96,96 0 0 0 0.01,-0.82421 96,96 0 0 0 0.004,-0.82422 v -88.22071 a 64,64 0 0 0 0,-0.29687 64,64 0 0 0 -0.008,-0.67188 64,64 0 0 0 -0.0137,-0.67187 64,64 0 0 0 -0.0195,-0.67383 64,64 0 0 0 -0.0293,-0.67187 64,64 0 0 0 -0.0352,-0.67188 64,64 0 0 0 -0.041,-0.67187 64,64 0 0 0 -0.0488,-0.66993 64,64 0 0 0 -0.0566,-0.66992 64,64 0 0 0 -0.0625,-0.66992 64,64 0 0 0 -0.0703,-0.66992 64,64 0 0 0 -0.0781,-0.66797 64,64 0 0 0 -0.084,-0.66797 64,64 0 0 0 -0.0898,-0.66601 64,64 0 0 0 -0.0996,-0.66602 64,64 0 0 0 -0.10547,-0.66406 64,64 0 0 0 -0.11133,-0.66211 64,64 0 0 0 -0.11914,-0.66211 64,64 0 0 0 -0.12695,-0.66211 64,64 0 0 0 -0.13282,-0.6582 64,64 0 0 0 -0.13867,-0.65821 64,64 0 0 0 -0.14844,-0.65625 64,64 0 0 0 -0.15234,-0.65625 64,64 0 0 0 -0.16211,-0.65234 64,64 0 0 0 -0.16602,-0.65234 64,64 0 0 0 -0.17578,-0.64844 64,64 0 0 0 -0.17968,-0.64844 64,64 0 0 0 -0.18946,-0.64648 64,64 0 0 0 -0.19336,-0.64258 64,64 0 0 0 -0.20117,-0.64258 64,64 0 0 0 -0.20898,-0.64063 64,64 0 0 0 -0.21485,-0.63671 64,64 0 0 0 -0.22265,-0.63477 64,64 0 0 0 -0.22657,-0.63281 64,64 0 0 0 -0.23632,-0.63086 64,64 0 0 0 -0.24024,-0.62696 64,64 0 0 0 -0.24804,-0.625 64,64 0 0 0 -0.25586,-0.62304 64,64 0 0 0 -0.26172,-0.6211 64,64 0 0 0 -0.26758,-0.61718 64,64 0 0 0 -0.27344,-0.61328 64,64 0 0 0 -0.28125,-0.61133 64,64 0 0 0 -0.28711,-0.60938 64,64 0 0 0 -0.29297,-0.60547 64,64 0 0 0 -0.29883,-0.60156 64,64 0 0 0 -0.30664,-0.59961 64,64 0 0 0 -0.3125,-0.5957 64,64 0 0 0 -0.31836,-0.5918 64,64 0 0 0 -0.32617,-0.58984 64,64 0 0 0 -0.33007,-0.58594 64,64 0 0 0 -0.3379,-0.58203 64,64 0 0 0 -0.34179,-0.57813 64,64 0 0 0 -0.34961,-0.57421 64,64 0 0 0 -0.35547,-0.57227 64,64 0 0 0 -0.36133,-0.56641 64,64 0 0 0 -0.36719,-0.56445 64,64 0 0 0 -0.37304,-0.55859 64,64 0 0 0 -0.37891,-0.55664 64,64 0 0 0 -0.38476,-0.55078 64,64 0 0 0 -0.39063,-0.54883 64,64 0 0 0 -0.39648,-0.54297 64,64 0 0 0 -0.40235,-0.53906 64,64 0 0 0 -0.4082,-0.53516 64,64 0 0 0 -0.41211,-0.53125 64,64 0 0 0 -0.41992,-0.52734 64,64 0 0 0 -0.42383,-0.52149 64,64 0 0 0 -0.42969,-0.51758 64,64 0 0 0 -0.43555,-0.51172 64,64 0 0 0 -0.4414,-0.50976 64,64 0 0 0 -0.44531,-0.50391 64,64 0 0 0 -0.45118,-0.49804 64,64 0 0 0 -0.45703,-0.49415 64,64 0 0 0 -0.46093,-0.49023 64,64 0 0 0 -0.4668,-0.48437 64,64 0 0 0 -0.4707,-0.47852 64,64 0 0 0 -0.47852,-0.47461 64,64 0 0 0 -0.48047,-0.4707 64,64 0 0 0 -0.48633,-0.46289 64,64 0 0 0 -0.49218,-0.46094 64,64 0 0 0 -0.4961,-0.45313 64,64 0 0 0 -0.50195,-0.44921 64,64 0 0 0 -0.50586,-0.44336 64,64 0 0 0 -0.50977,-0.4375 64,64 0 0 0 -0.51562,-0.4336 64,64 0 0 0 -0.51953,-0.42773 64,64 0 0 0 -0.52344,-0.42188 64,64 0 0 0 -0.52734,-0.41601 64,64 0 0 0 -0.53321,-0.41016 64,64 0 0 0 -0.53711,-0.40625 64,64 0 0 0 -0.54101,-0.39844 64,64 0 0 0 -0.54492,-0.39453 64,64 0 0 0 -0.55079,-0.38867 64,64 0 0 0 -0.55273,-0.38281 64,64 0 0 0 -0.55859,-0.375 64,64 0 0 0 -0.56055,-0.3711 64,64 0 0 0 -0.56445,-0.36523 64,64 0 0 0 -0.57032,-0.35742 64,64 0 0 0 -0.57226,-0.35352 64,64 0 0 0 -0.57617,-0.3457 64,64 0 0 0 -0.58008,-0.3418 64,64 0 0 0 -0.58399,-0.33398 64,64 0 0 0 -0.58789,-0.32813 64,64 0 0 0 -0.58984,-0.32226 64,64 0 0 0 -0.59375,-0.31641 64,64 0 0 0 -0.59766,-0.30859 64,64 0 0 0 -0.60156,-0.30274 64,64 0 0 0 -0.60351,-0.29882 64,64 0 0 0 -0.60547,-0.28907 64,64 0 0 0 -0.60938,-0.28515 64,64 0 0 0 -0.61328,-0.27735 64,64 0 0 0 -0.61523,-0.27148 64,64 0 0 0 -0.61914,-0.26563 64,64 0 0 0 -0.6211,-0.25781 64,64 0 0 0 -0.62305,-0.25195 64,64 0 0 0 -0.62695,-0.24414 64,64 0 0 0 -0.6289,-0.24024 64,64 0 0 0 -0.63086,-0.23047 64,64 0 0 0 -0.63477,-0.22656 64,64 0 0 0 -0.63672,-0.21875 64,64 0 0 0 -0.63672,-0.21094 64,64 0 0 0 -0.64062,-0.20507 64,64 0 0 0 -0.64453,-0.19922 64,64 0 0 0 -0.64453,-0.19141 64,64 0 0 0 -0.64649,-0.18555 64,64 0 0 0 -0.64844,-0.17773 64,64 0 0 0 -0.65039,-0.17188 64,64 0 0 0 -0.65234,-0.16406 64,64 0 0 0 -0.6543,-0.1582 64,64 0 0 0 -0.65625,-0.15039 64,64 0 0 0 -0.65625,-0.14453 64,64 0 0 0 -0.6582,-0.13672 64,64 0 0 0 -0.66016,-0.12891 64,64 0 0 0 -0.66211,-0.12305 64,64 0 0 0 -0.66211,-0.11718 64,64 0 0 0 -0.66406,-0.10938 64,64 0 0 0 -0.66406,-0.10156 64,64 0 0 0 -0.66602,-0.0957 64,64 0 0 0 -0.66796,-0.0879 64,64 0 0 0 -0.66797,-0.0801 64,64 0 0 0 -0.66797,-0.0742 64,64 0 0 0 -0.66992,-0.0664 64,64 0 0 0 -0.66993,-0.0605 64,64 0 0 0 -0.66992,-0.0527 64,64 0 0 0 -0.67187,-0.0469 64,64 0 0 0 -0.67188,-0.0391 64,64 0 0 0 -0.67187,-0.0312 64,64 0 0 0 -0.67188,-0.0254 64,64 0 0 0 -0.67187,-0.0176 64,64 0 0 0 -0.67383,-0.01 64,64 0 0 0 -0.67188,-0.004 H 365.2207 a 15.86,15.86 0 0 0 -0.11132,0 z"
       transform="translate(-169.70844,-73.371124)" />
    <path
       id="path895"
       style="fill:#ffffff;fill-opacity:1"
       d="M 413.37109,96.226562 V 233.37109 h -48 a 47.56,47.56 0 0 0 -16,2.92969 V 119.18555 a 66.211258,66.211258 0 0 0 -12.98437,25.68164 83.994247,83.994247 0 0 0 -19.01563,-6.02149 v 142.52539 a 16,16 0 0 1 -16,16 h -32 a 16,16 0 0 1 -16,-16 V 152.66992 a 83.994247,83.994247 0 0 0 -32,44.16211 v 84.53906 a 16,16 0 0 1 -16,16 h -32 a 16,16 0 0 1 -16,-16 v -99.67773 a 83.15036,83.15036 0 0 0 -72.712887,82.49219 83.15036,83.15036 0 0 0 55.726567,78.49609 137.93895,137.93895 0 0 0 -3.15039,29.3125 137.93895,137.93895 0 0 0 34.49609,91.25 128,128 0 0 1 -14.35938,-58.87305 v -77.94921 a 47.26,47.26 0 0 0 16,2.94921 h 32 a 47.65,47.65 0 0 0 32,-12.49023 47.65,47.65 0 0 0 32,12.49023 h 32 a 47.4,47.4 0 0 0 21.86914,-5.51953 64.34,64.34 0 0 0 38.8711,34.44922 c -17.11,14.82 -31.58055,34.48008 -47.31055,58.08008 l -6.31055,9.4707 a 8,8 0 0 0 2.22071,11.08008 l 13.31054,8.87891 a 8,8 0 0 0 11.08008,-2.21875 l 6.3086,-9.47071 c 31.89,-47.84 51.53078,-70.27078 96.05078,-72.55078 a 8.22,8.22 0 0 0 7.88086,-8 v -16.19922 c 0,-4.42 -3.52117,-8 -13.20118,-8 h -35.25 a 47.59,47.59 0 0 1 -47.51953,-47.58984 v -0.56055 a 15.86,15.86 0 0 1 15.73829,-15.84961 15.86,15.86 0 0 1 0.11132,0 h 112.15039 a 64,64 0 0 1 64,64 v 88.22071 a 96,96 0 0 1 -0.16601,5.65234 138.03043,138.03043 0 0 0 19.88476,-71.36914 138.03043,138.03043 0 0 0 -14.91211,-62.4043 86.326195,86.326195 0 0 0 27.90625,-63.55273 86.326195,86.326195 0 0 0 -64.71289,-83.57617 v 96.92968 a 94.76,94.76 0 0 0 -32,-5.90039 h -32 v -112 a 16,16 0 0 1 1.74219,-7.25976 66.211258,66.211258 0 0 0 -33.74219,-17.884768 z"
       transform="translate(-169.70844,-73.371124)" />
  </g>
</svg>
